digraph G {
node0 [shape="box" color="cyan" style="filled" label="VFXExpressionCombine Float2
Count_a"]
node1 [shape="box" label="VFXExpressionMax Float"]
node2 [shape="box" label="VFXExpressionCastUintToFloat Float"]
node3 [shape="box" label="VFXExpressionMul Uint32"]
node4 [shape="box" label="VFXValue`1 Uint32 (0)"]
node5 [shape="box" label="VFXValue`1 Uint32 (0)"]
node6 [shape="box" color="lightslategray" style="filled" label="VFXValue`1 Float (0)"]
node7 [shape="box" color="cyan" style="filled" label="VFXExpressionCombine Float2
Delay_a"]
node8 [shape="box" color="lightgray" style="filled" label="VFXExpressionMax Float"]
node9 [shape="box" color="lightgray" style="filled" label="VFXValue`1 Float (0)"]
node10 [shape="box" color="cyan" style="filled" label="VFXExpressionCombine Float3
bounds_center"]
node11 [shape="box" color="lightgray" style="filled" label="VFXValue`1 Float (0)"]
node12 [shape="box" color="lightgray" style="filled" label="VFXValue`1 Float (0)"]
node13 [shape="box" color="lightgray" style="filled" label="VFXValue`1 Float (5)"]
node14 [shape="box" color="cyan" style="filled" label="VFXExpressionCombine Float3
bounds_size"]
node15 [shape="box" color="lightgray" style="filled" label="VFXValue`1 Float (10)"]
node16 [shape="box" color="lightgray" style="filled" label="VFXValue`1 Float (10)"]
node17 [shape="box" color="lightgray" style="filled" label="VFXValue`1 Float (10)"]
node18 [shape="box" color="orange" style="filled" label="VFXExpressionCombine Float3
Position_a"]
node19 [shape="box" color="yellow" style="filled" label="VFXExpressionExtractComponent Float"]
node20 [shape="box" color="yellow" style="filled" label="VFXExpressionSampleTexture2D Float4"]
node21 [shape="box" label="VFXTexture2DValue Texture2D (DefaultParticle (UnityEngine.Texture2D))"]
node22 [shape="box" color="yellow" style="filled" label="VFXExpressionCombine Float2"]
node23 [shape="box" color="yellow" style="filled" label="VFXExpressionDivide Float"]
node24 [shape="box" color="yellow" style="filled" label="VFXExpressionCastUintToFloat Float"]
node25 [shape="box" color="yellow" style="filled" label="VFXExpressionSubtract Uint32"]
node26 [shape="box" color="yellow" style="filled" label="VFXAttributeExpression Uint32 (spawnIndex)"]
node27 [shape="box" color="yellow" style="filled" label="VFXExpressionMul Uint32"]
node28 [shape="box" color="yellow" style="filled" label="VFXExpressionDivide Uint32"]
node29 [shape="box" label="VFXExpressionCastUintToFloat Float"]
node30 [shape="box" color="yellow" style="filled" label="VFXExpressionDivide Float"]
node31 [shape="box" color="yellow" style="filled" label="VFXExpressionCastUintToFloat Float"]
node32 [shape="box" label="VFXExpressionCastUintToFloat Float"]
node33 [shape="box" color="lightgray" style="filled" label="VFXExpressionMax Float"]
node34 [shape="box" color="lightgray" style="filled" label="VFXValue`1 Float (0)"]
node35 [shape="box" color="yellow" style="filled" label="VFXExpressionExtractComponent Float"]
node36 [shape="box" color="yellow" style="filled" label="VFXExpressionExtractComponent Float"]
node37 [shape="box" color="orange" style="filled" label="VFXExpressionMul Float
Size_b"]
node38 [shape="box" color="yellow" style="filled" label="VFXExpressionExtractComponent Float"]
node39 [shape="box" label="VFXValue`1 Float (0)"]
node40 [shape="box" color="orange" style="filled" label="VFXExpressionAdd Float3
Color_c"]
node41 [shape="box" color="yellow" style="filled" label="VFXExpressionCombine Float3"]
node42 [shape="box" color="yellow" style="filled" label="VFXExpressionExtractComponent Float"]
node43 [shape="box" color="yellow" style="filled" label="VFXExpressionSampleTexture2D Float4"]
node44 [shape="box" label="VFXTexture2DValue Texture2D (DefaultParticle (UnityEngine.Texture2D))"]
node45 [shape="box" color="yellow" style="filled" label="VFXExpressionCombine Float2"]
node46 [shape="box" color="yellow" style="filled" label="VFXExpressionDivide Float"]
node47 [shape="box" color="yellow" style="filled" label="VFXExpressionExtractComponent Float"]
node48 [shape="box" color="yellow" style="filled" label="VFXExpressionSampleTexture2D Float4"]
node49 [shape="box" label="VFXTexture2DValue Texture2D (DefaultParticle (UnityEngine.Texture2D))"]
node50 [shape="box" color="lightgray" style="filled" label="VFXExpressionMax Float"]
node51 [shape="box" color="lightgray" style="filled" label="VFXValue`1 Float (0)"]
node52 [shape="box" label="VFXExpressionCastIntToFloat Float"]
node53 [shape="box" label="VFXValue`1 Int32 (0)"]
node54 [shape="box" color="yellow" style="filled" label="VFXExpressionDivide Float"]
node55 [shape="box" color="yellow" style="filled" label="VFXExpressionExtractComponent Float"]
node56 [shape="box" label="VFXExpressionCastIntToFloat Float"]
node57 [shape="box" label="VFXValue`1 Int32 (0)"]
node58 [shape="box" color="lightgray" style="filled" label="VFXExpressionMax Float"]
node59 [shape="box" color="lightgray" style="filled" label="VFXValue`1 Float (0)"]
node60 [shape="box" color="yellow" style="filled" label="VFXExpressionExtractComponent Float"]
node61 [shape="box" color="yellow" style="filled" label="VFXExpressionExtractComponent Float"]
node62 [shape="box" color="yellow" style="filled" label="VFXExpressionMul Float3"]
node63 [shape="box" label="VFXExpressionCombine Float3"]
node64 [shape="box" label="VFXExpressionCastIntToFloat Float"]
node65 [shape="box" label="VFXValue`1 Int32 (0)"]
node66 [shape="box" color="yellow" style="filled" label="VFXExpressionSubtract Float3"]
node67 [shape="box" color="yellow" style="filled" label="VFXExpressionAdd Float3"]
node68 [shape="box" color="yellow" style="filled" label="VFXExpressionCombine Float3"]
node69 [shape="box" color="yellow" style="filled" label="VFXExpressionExtractComponent Float"]
node70 [shape="box" color="yellow" style="filled" label="VFXExpressionAdd Float4"]
node71 [shape="box" color="yellow" style="filled" label="VFXExpressionMul Float4"]
node72 [shape="box" color="lightgray" style="filled" label="VFXExpressionCombine Float4"]
node73 [shape="box" color="lightgray" style="filled" label="VFXValue`1 Float (0.33)"]
node74 [shape="box" color="yellow" style="filled" label="VFXExpressionSubtract Float4"]
node75 [shape="box" color="lightgray" style="filled" label="VFXExpressionCombine Float4"]
node76 [shape="box" color="lightgray" style="filled" label="VFXValue`1 Float (0)"]
node77 [shape="box" color="lightgray" style="filled" label="VFXValue`1 Float (1)"]
node78 [shape="box" color="lightgray" style="filled" label="VFXValue`1 Float (0)"]
node79 [shape="box" color="lightgray" style="filled" label="VFXValue`1 Float (0)"]
node80 [shape="box" color="yellow" style="filled" label="VFXExpressionExtractComponent Float"]
node81 [shape="box" color="yellow" style="filled" label="VFXExpressionExtractComponent Float"]
node82 [shape="box" color="yellow" style="filled" label="VFXExpressionMul Float3"]
node83 [shape="box" color="yellow" style="filled" label="VFXExpressionCombine Float3"]
node84 [shape="box" color="yellow" style="filled" label="VFXExpressionMin Float"]
node85 [shape="box" color="yellow" style="filled" label="VFXExpressionMax Float"]
node86 [shape="box" color="yellow" style="filled" label="VFXExpressionExtractComponent Float"]
node87 [shape="box" color="yellow" style="filled" label="VFXExpressionSampleTexture2D Float4"]
node88 [shape="box" label="VFXTexture2DValue Texture2D (DefaultParticle (UnityEngine.Texture2D))"]
node89 [shape="box" color="lightgray" style="filled" label="VFXExpressionMax Float"]
node90 [shape="box" color="lightgray" style="filled" label="VFXValue`1 Float (0)"]
node91 [shape="box" color="lightgray" style="filled" label="VFXValue`1 Float (0)"]
node92 [shape="box" color="lightgray" style="filled" label="VFXValue`1 Float (1)"]
node93 [shape="box" color="yellow" style="filled" label="VFXExpressionSubtract Float3"]
node94 [shape="box" color="cyan" style="filled" label="VFXTexture2DValue Texture2D (particle.square.16x16 (UnityEngine.Texture2D))
mainTexture"]
node1 -> node0 [headlabel="0"]
node1 -> node0 [headlabel="1"]
node2 -> node1 [headlabel="0"]
node6 -> node1 [headlabel="1"]
node3 -> node2 
node4 -> node3 [headlabel="0"]
node5 -> node3 [headlabel="1"]
node8 -> node7 [headlabel="0"]
node8 -> node7 [headlabel="1"]
node9 -> node8 [headlabel="0"]
node6 -> node8 [headlabel="1"]
node11 -> node10 [headlabel="0"]
node12 -> node10 [headlabel="1"]
node13 -> node10 [headlabel="2"]
node15 -> node14 [headlabel="0"]
node16 -> node14 [headlabel="1"]
node17 -> node14 [headlabel="2"]
node19 -> node18 [headlabel="0"]
node35 -> node18 [headlabel="1"]
node36 -> node18 [headlabel="2"]
node20 -> node19 
node21 -> node20 [headlabel="0"]
node22 -> node20 [headlabel="1"]
node33 -> node20 [headlabel="2"]
node23 -> node22 [headlabel="0"]
node30 -> node22 [headlabel="1"]
node24 -> node23 [headlabel="0"]
node29 -> node23 [headlabel="1"]
node25 -> node24 
node26 -> node25 [headlabel="0"]
node27 -> node25 [headlabel="1"]
node28 -> node27 [headlabel="0"]
node5 -> node27 [headlabel="1"]
node26 -> node28 [headlabel="0"]
node5 -> node28 [headlabel="1"]
node5 -> node29 
node31 -> node30 [headlabel="0"]
node32 -> node30 [headlabel="1"]
node28 -> node31 
node4 -> node32 
node34 -> node33 [headlabel="0"]
node6 -> node33 [headlabel="1"]
node20 -> node35 
node20 -> node36 
node38 -> node37 [headlabel="0"]
node39 -> node37 [headlabel="1"]
node18 -> node38 
node41 -> node40 [headlabel="0"]
node62 -> node40 [headlabel="1"]
node42 -> node41 [headlabel="0"]
node60 -> node41 [headlabel="1"]
node61 -> node41 [headlabel="2"]
node43 -> node42 
node44 -> node43 [headlabel="0"]
node45 -> node43 [headlabel="1"]
node58 -> node43 [headlabel="2"]
node46 -> node45 [headlabel="0"]
node54 -> node45 [headlabel="1"]
node47 -> node46 [headlabel="0"]
node52 -> node46 [headlabel="1"]
node48 -> node47 
node49 -> node48 [headlabel="0"]
node22 -> node48 [headlabel="1"]
node50 -> node48 [headlabel="2"]
node51 -> node50 [headlabel="0"]
node6 -> node50 [headlabel="1"]
node53 -> node52 
node55 -> node54 [headlabel="0"]
node56 -> node54 [headlabel="1"]
node48 -> node55 
node57 -> node56 
node59 -> node58 [headlabel="0"]
node6 -> node58 [headlabel="1"]
node43 -> node60 
node43 -> node61 
node63 -> node62 [headlabel="0"]
node66 -> node62 [headlabel="1"]
node64 -> node63 [headlabel="0"]
node64 -> node63 [headlabel="1"]
node64 -> node63 [headlabel="2"]
node65 -> node64 
node67 -> node66 [headlabel="0"]
node41 -> node66 [headlabel="1"]
node68 -> node67 [headlabel="0"]
node82 -> node67 [headlabel="1"]
node69 -> node68 [headlabel="0"]
node80 -> node68 [headlabel="1"]
node81 -> node68 [headlabel="2"]
node70 -> node69 
node43 -> node70 [headlabel="0"]
node71 -> node70 [headlabel="1"]
node72 -> node71 [headlabel="0"]
node74 -> node71 [headlabel="1"]
node73 -> node72 [headlabel="0"]
node73 -> node72 [headlabel="1"]
node73 -> node72 [headlabel="2"]
node73 -> node72 [headlabel="3"]
node75 -> node74 [headlabel="0"]
node43 -> node74 [headlabel="1"]
node76 -> node75 [headlabel="0"]
node77 -> node75 [headlabel="1"]
node78 -> node75 [headlabel="2"]
node79 -> node75 [headlabel="3"]
node70 -> node80 
node70 -> node81 
node83 -> node82 [headlabel="0"]
node93 -> node82 [headlabel="1"]
node84 -> node83 [headlabel="0"]
node84 -> node83 [headlabel="1"]
node84 -> node83 [headlabel="2"]
node85 -> node84 [headlabel="0"]
node92 -> node84 [headlabel="1"]
node86 -> node85 [headlabel="0"]
node91 -> node85 [headlabel="1"]
node87 -> node86 
node88 -> node87 [headlabel="0"]
node22 -> node87 [headlabel="1"]
node89 -> node87 [headlabel="2"]
node90 -> node89 [headlabel="0"]
node6 -> node89 [headlabel="1"]
node41 -> node93 [headlabel="0"]
node68 -> node93 [headlabel="1"]
}
